[gd_scene load_steps=2 format=2]

[ext_resource path="res://Scenes/Control.gd" type="Script" id=1]

[node name="Control" type="Control"]

pause_mode = 2
anchor_left = 0.0
anchor_top = 0.0
anchor_right = 0.0
anchor_bottom = 0.0
margin_left = -330.138
margin_top = -196.852
margin_right = 1669.0
margin_bottom = 1803.0
rect_pivot_offset = Vector2( 0, 0 )
rect_clip_content = false
mouse_filter = 0
mouse_default_cursor_shape = 0
size_flags_horizontal = 1
size_flags_vertical = 1
script = ExtResource( 1 )
_sections_unfolded = [ "Anchor", "Margin", "Pause", "Rect" ]

[node name="ResumeButton" type="Button" parent="." index="0"]

anchor_left = 0.0
anchor_top = 0.0
anchor_right = 0.0
anchor_bottom = 0.0
margin_left = 305.0
margin_top = 214.0
margin_right = 369.0
margin_bottom = 234.0
rect_scale = Vector2( 50, 50 )
rect_pivot_offset = Vector2( 0, 0 )
rect_clip_content = false
focus_mode = 2
mouse_filter = 0
mouse_default_cursor_shape = 0
size_flags_horizontal = 1
size_flags_vertical = 1
toggle_mode = false
enabled_focus_mode = 2
shortcut = null
group = null
text = "Resume"
flat = false
align = 1
_sections_unfolded = [ "Rect" ]

[node name="QuitButton" type="Button" parent="." index="1"]

anchor_left = 0.0
anchor_top = 0.0
anchor_right = 0.0
anchor_bottom = 0.0
margin_left = 2623.56
margin_top = 1345.41
margin_right = 2663.56
margin_bottom = 1365.41
rect_scale = Vector2( 50, 50 )
rect_pivot_offset = Vector2( 35.1339, -3.99159 )
rect_clip_content = false
focus_mode = 2
mouse_filter = 0
mouse_default_cursor_shape = 0
size_flags_horizontal = 1
size_flags_vertical = 1
toggle_mode = false
enabled_focus_mode = 2
shortcut = null
group = null
text = "Quit"
flat = false
align = 1
_sections_unfolded = [ "Margin", "Rect", "Size Flags" ]

[connection signal="pressed" from="ResumeButton" to="." method="_on_ResumeButton_pressed"]

[connection signal="pressed" from="QuitButton" to="." method="_on_QuitButton_pressed"]


