; Engine configuration file.
; It's best edited using the editor UI and not directly,
; since the parameters that go here are not all obvious.
;
; Format:
;   [section] ; section goes between []
;   param=value ; assign values to parameters

config_version=3

[application]

config/name="LDJam42"
run/main_scene="res://Scenes/Menu.tscn"
config/icon="res://Sprites/Icon.png"

[autoload]

global="*res://Scripts/Global.gd"

[global]

grid=false

[input]

up=[ Object(InputEventKey,"resource_local_to_scene":false,"resource_name":"","device":0,"alt":false,"shift":false,"control":false,"meta":false,"command":false,"pressed":false,"scancode":32,"unicode":0,"echo":false,"script":null)
 ]
down=[ Object(InputEventKey,"resource_local_to_scene":false,"resource_name":"","device":0,"alt":false,"shift":false,"control":false,"meta":false,"command":false,"pressed":false,"scancode":16777234,"unicode":0,"echo":false,"script":null)
 ]
left=[ Object(InputEventKey,"resource_local_to_scene":false,"resource_name":"","device":0,"alt":false,"shift":false,"control":false,"meta":false,"command":false,"pressed":false,"scancode":16777231,"unicode":0,"echo":false,"script":null)
 ]
right=[ Object(InputEventKey,"resource_local_to_scene":false,"resource_name":"","device":0,"alt":false,"shift":false,"control":false,"meta":false,"command":false,"pressed":false,"scancode":16777233,"unicode":0,"echo":false,"script":null)
 ]
esc=[ Object(InputEventKey,"resource_local_to_scene":false,"resource_name":"","device":0,"alt":false,"shift":false,"control":false,"meta":false,"command":false,"pressed":false,"scancode":16777217,"unicode":0,"echo":false,"script":null)
 ]

[rendering]

environment/default_environment="res://default_env.tres"
